%YAML 1.1
%TAG !u! tag:unity3d.com,2011:
--- !u!162 &1
EditorUserSettings:
  m_ObjectHideFlags: 0
  serializedVersion: 4
  m_ConfigSettings:
    RecentlyUsedScenePath-0:
      value: 22424703114646680e0b0227036c731500121415097a68252320092a
      flags: 0
    RecentlyUsedScenePath-1:
      value: 22424703114646680e0b0227036c731500121415047968252320092a
      flags: 0
    RecentlyUsedScenePath-2:
      value: 22424703114646680e0b0227036c731500121415047a68252320092a
      flags: 0
    RecentlyUsedScenePath-3:
      value: 22424703114646680e0b0227036c731500121415047b68252320092a
      flags: 0
    RecentlyUsedScenePath-4:
      value: 22424703114646680e0b0227036c731500121415097968252320092a
      flags: 0
    RecentlyUsedScenePath-5:
      value: 22424703114646680e0b0227036c731500121415097b68252320092a
      flags: 0
    RecentlyUsedScenePath-6:
      value: 22424703114646680e0b0227036c731500121415082d20313825097df7ee3d2cfb
      flags: 0
    RecentlyUsedScenePath-7:
      value: 22424703114646680e0b0227036c731500121415082d35392a271821c5f93976f7e93ffdfe
      flags: 0
    RecentlyUsedScenePath-8:
      value: 22424703114646680e0b0227036c72111f19352f223d15332827187df7ee3d2cfb
      flags: 0
    RecentlyUsedScenePath-9:
      value: 22424703114646680e0b0227036c7b34393b563f22213229
      flags: 0
    vcSharedLogLevel:
      value: 0d5e400f0650
      flags: 0
  m_VCAutomaticAdd: 1
  m_VCDebugCom: 0
  m_VCDebugCmd: 0
  m_VCDebugOut: 0
  m_SemanticMergeMode: 2
  m_VCShowFailedCheckout: 1
  m_VCOverwriteFailedCheckoutAssets: 1
  m_VCProjectOverlayIcons: 1
  m_VCHierarchyOverlayIcons: 1
  m_VCOtherOverlayIcons: 1
  m_VCAllowAsyncUpdate: 1
